{
  "consumer": {
    "name": "ProductConsumer"
  },
  "provider": {
    "name": "ProductProvider"
  },
  "interactions": [
    {
      "description": "A request for all products with is_rental=true",
      "request": {
        "method": "GET",
        "path": "/products",
        "headers": {
          "Accept": "application/json"
        }
      },
      "response": {
        "status": 200,
        "headers": {
          "Content-Type": "application/json"
        },
        "body": {
          "current_page": 1,
          "data": [
            {
              "id": "01J6Q1KDC8P3CPWRZYAYGNYC5J",
              "name": "Combination Pliers...",
              "description": "Lorem ipsum dolor sit amet, consectetur adipiscing elit. Mauris viverra felis nec pellentesque feugiat. Donec faucibus arcu maximus, convallis nisl eu, placerat dolor. Morbi finibus neque nec tincidunt pharetra. Sed eget tortor malesuada, mollis enim id, condimentum nisi. In viverra quam at bibendum ultricies. Aliquam quis eros ex. Etiam at pretium massa, ut pharetra tortor. Sed vel metus sem. Suspendisse ac molestie turpis. Duis luctus justo massa, faucibus ornare eros elementum et. Vestibulum quis nisl vitae ante dapibus tempor auctor ut leo. Mauris consectetur et magna at ultricies. Proin a aliquet turpis.",
              "price": 14.15,
              "is_location_offer": false,
              "is_rental": false,
              "in_stock": true,
              "product_image": {
                "id": "01J6Q1KDC13YKGKGK728DDAGS7",
                "by_name": "Helinton Fantin",
                "by_url": "https://unsplash.com/@fantin",
                "source_name": "Unsplash",
                "source_url": "https://unsplash.com/photos/W8BNwvOvW4M",
                "file_name": "pliers01.avif",
                "title": "Combination pliers"
              },
              "category": {
                "id": "01J6Q1KDBR9XAWPSB1MFDDRVJJ",
                "name": "Pliers",
                "slug": "pliers",
                "parent_id": "01J6Q1KDBMMGN28DB8TDM99BR8"
              },
              "brand": {
                "id": "01J6Q1KDBBQ3KBHGNRZWQZSFJ7",
                "name": "ForgeFlex Tools",
                "slug": "forgeflex-tools"
              }
            },
            {
              "id": "01J6Q1KDCAP5EQTQHGWFRRWHJS",
              "name": "Pliers",
              "description": "Nunc vulputate, orci at congue faucibus, enim neque sodales nulla, nec imperdiet augue odio vel nibh. Etiam auctor, ligula quis gravida dictum, mi massa commodo ante, sollicitudin pulvinar nulla justo hendrerit lacus. Vivamus rutrum pharetra molestie. Fusce tristique odio tristique, elementum est eget, porttitor diam. Orci varius natoque penatibus et magnis dis parturient montes, nascetur ridiculus mus. Maecenas at ligula sed sapien porta pretium. Aenean cursus, magna in blandit consectetur, libero orci aliquet eros, et maximus nunc est eu dolor. Aenean non pellentesque eros. In sodales orci eget orci fringilla, vitae feugiat elit porta. Etiam aliquam, mi pretium tempus mattis, mauris ipsum gravida risus, at tempor nulla ipsum molestie ligula. Ut placerat, urna sit amet tincidunt volutpat, ex orci luctus purus, nec laoreet dolor sapien vel erat.",
              "price": 12.01,
              "is_location_offer": false,
              "is_rental": false,
              "in_stock": true,
              "product_image": {
                "id": "01J6Q1KDC13YKGKGK728DDAGS8",
                "by_name": "Everyday basics",
                "by_url": "https://unsplash.com/@zanardi",
                "source_name": "Unsplash",
                "source_url": "https://unsplash.com/photos/I8eTuMmxIfo",
                "file_name": "pliers02.avif",
                "title": "Pliers"
              },
              "category": {
                "id": "01J6Q1KDBR9XAWPSB1MFDDRVJJ",
                "name": "Pliers",
                "slug": "pliers",
                "parent_id": "01J6Q1KDBMMGN28DB8TDM99BR8"
              },
              "brand": {
                "id": "01J6Q1KDBBQ3KBHGNRZWQZSFJ7",
                "name": "ForgeFlex Tools",
                "slug": "forgeflex-tools"
              }
            }
          ],
          "from": 1,
          "last_page": 5,
          "per_page": 9,
          "to": 9,
          "total": 45
        }
      }
    }
  ],
  "metadata": {
    "pactSpecification": {
      "version": "2.0.0"
    }
  }
}
